…
Observations are the level of items in orders by user. There are user /
order variables – user ID, order ID, order day, and order hour. There
are also item variables – name, aisle, department, and some numeric
codes.

How many aisles, and which are most items from?

``` r
instacart %>%
  count(aisle) %>%
  arrange(desc(n))
```

    ## # A tibble: 134 x 2
    ##    aisle                              n
    ##    <chr>                          <int>
    ##  1 fresh vegetables              150609
    ##  2 fresh fruits                  150473
    ##  3 packaged vegetables fruits     78493
    ##  4 yogurt                         55240
    ##  5 packaged cheese                41699
    ##  6 water seltzer sparkling water  36617
    ##  7 milk                           32644
    ##  8 chips pretzels                 31269
    ##  9 soy lactosefree                26240
    ## 10 bread                          23635
    ## # ... with 124 more rows
…
# preview accel_df
accel_df
```

    ## # A tibble: 50,400 x 6
    ##     week day_id day    weekday_vs_weekend minute activity_count
    ##    <int>  <int> <ord>  <fct>               <int>          <dbl>
    ##  1     1      2 Monday weekday                 1              1
    ##  2     1      2 Monday weekday                 2              1
    ##  3     1      2 Monday weekday                 3              1
    ##  4     1      2 Monday weekday                 4              1
    ##  5     1      2 Monday weekday                 5              1
    ##  6     1      2 Monday weekday                 6              1
    ##  7     1      2 Monday weekday                 7              1
    ##  8     1      2 Monday weekday                 8              1
    ##  9     1      2 Monday weekday                 9              1
    ## 10     1      2 Monday weekday                10              1
    ## # ... with 50,390 more rows
…
### Part 2

Total acitivity over the day

``` r
# table for aggregate daily activity counts
accel_df %>%
  group_by(day_id) %>%
  summarize(daily_activity = sum(activity_count))
```

    ## # A tibble: 35 x 2
    ##    day_id daily_activity
    ##     <int>          <dbl>
    ##  1      1        480543.
    ##  2      2         78828.
    ##  3      3        376254 
    ##  4      4        631105 
    ##  5      5        355924.
    ##  6      6        307094.
    ##  7      7        340115.
    ##  8      8        568839 
    ##  9      9        295431 
    ## 10     10        607175 
    ## # ... with 25 more rows
…
